/* XPM */
static char * title_2_active_xpm[] = {
"2 24 3 1",
" 	c #D8D8D8",
".	c #FFFFFF",
"+	c #1B3479",
"  ",
"..",
"  ",
"  ",
"++",
"++",
"++",
"++",
"++",
"++",
"++",
"++",
"++",
"++",
"++",
"++",
"++",
"++",
"++",
"++",
"++",
"++",
"  ",
"  "};
